\relax 
\@writefile{toc}{\contentsline {chapter}{Anexa{} \numberline {A}Rezultate}{66}\protected@file@percent }
\@writefile{lof}{\addvspace {10\p@ }}
\@writefile{lot}{\addvspace {10\p@ }}
\@writefile{lof}{\contentsline {figure}{\numberline {A.1}{\ignorespaces Reprezentarea \IeC {\^\i }n timp a unei probe experimentale utiliz\IeC {\^a}nd amplitudinea.}}{66}\protected@file@percent }
\newlabel{fig:amplitudini_trial}{{A.1}{66}}
\@writefile{lof}{\contentsline {figure}{\numberline {A.2}{\ignorespaces Reprezentarea \IeC {\^\i }n timp a unei probe experimentale dup\IeC {\u a} aplicarea convolu\IeC {\textcommabelow t}iei \IeC {\^\i }n timp.}}{67}\protected@file@percent }
\newlabel{fig:decay_trial}{{A.2}{67}}
\@writefile{lof}{\contentsline {figure}{\numberline {A.3}{\ignorespaces Activitatea popula\IeC {\textcommabelow t}iei de neuroni}}{67}\protected@file@percent }
\newlabel{fig:som_10_contrast_100}{{A.3}{67}}
\@writefile{lot}{\contentsline {table}{\numberline {A.1}{\ignorespaces Rezultate utiliz\IeC {\^a}nd histograma culorilor \IeC {\textcommabelow s}i SVM}}{67}\protected@file@percent }
\newlabel{table:svm_histogram}{{A.1}{67}}
\@writefile{lof}{\contentsline {figure}{\numberline {A.4}{\ignorespaces Activitatea popula\IeC {\textcommabelow t}iei de neuroni: 125 de culori}}{68}\protected@file@percent }
\newlabel{fig:som_5_on_end}{{A.4}{68}}
\@writefile{lof}{\contentsline {figure}{\numberline {A.5}{\ignorespaces Activitatea popula\IeC {\textcommabelow t}iei de neuroni: $\tau $ = 100}}{68}\protected@file@percent }
\newlabel{fig:som_10_tau_100}{{A.5}{68}}
\@writefile{lot}{\contentsline {table}{\numberline {A.2}{\ignorespaces Rezultatele utiliz\IeC {\^a}nd reprezentarea prin centroizi \IeC {\textcommabelow s}i re\IeC {\textcommabelow t}ele convolu\IeC {\textcommabelow t}ionale.}}{68}\protected@file@percent }
\newlabel{table:model_vectors}{{A.2}{68}}
\@writefile{lof}{\contentsline {figure}{\numberline {A.6}{\ignorespaces Activitatea popula\IeC {\textcommabelow t}iei de neuroni utiliz\IeC {\u a}nd z-score}}{69}\protected@file@percent }
\newlabel{fig:som_10_z_score}{{A.6}{69}}
\@writefile{lof}{\contentsline {figure}{\numberline {A.7}{\ignorespaces Tiparele ce au cel putin 50\% din valoarea maxim\IeC {\u a} de c\IeC {\^a}\IeC {\textcommabelow s}tig de informa\IeC {\textcommabelow t}ie}}{69}\protected@file@percent }
\newlabel{fig:som_10_info_gain_0_5}{{A.7}{69}}
\@writefile{lof}{\contentsline {figure}{\numberline {A.8}{\ignorespaces Compararea consider\IeC {\u a}rii amplitudinii \IeC {\textcommabelow s}i a mediei: Z-score}}{70}\protected@file@percent }
\newlabel{fig:som_10_merge_diff_z_score}{{A.8}{70}}
\@writefile{lof}{\contentsline {figure}{\numberline {A.9}{\ignorespaces Compararea consider\IeC {\u a}rii amplitudinii \IeC {\textcommabelow s}i a mediei a tiparelor cu un c\IeC {\^a}\IeC {\textcommabelow s}tig de informa\IeC {\textcommabelow t}ie minim de 60\%: Z-score.}}{71}\protected@file@percent }
\newlabel{fig:info_gain_merge}{{A.9}{71}}
\@writefile{lof}{\contentsline {figure}{\numberline {A.10}{\ignorespaces Activitatea pe canale a neuronilor: fereastr\IeC {\u a} de 10 de elemente.}}{72}\protected@file@percent }
\newlabel{fig:psth_10_1}{{A.10}{72}}
\@writefile{lof}{\contentsline {figure}{\numberline {A.11}{\ignorespaces Activitatea pe canale a neuronilor: fereastr\IeC {\u a} de 10 elemente, pasul de 2 milisecunde.}}{73}\protected@file@percent }
\newlabel{fig:psth_size_10_step_2}{{A.11}{73}}
\@writefile{lof}{\contentsline {figure}{\numberline {A.12}{\ignorespaces Matricea de confuzie pentru histograma de culori \IeC {\textcommabelow s}i arbori de decizie}}{74}\protected@file@percent }
\newlabel{fig:histogram_1000_z_score}{{A.12}{74}}
\@writefile{lof}{\contentsline {figure}{\numberline {A.13}{\ignorespaces Matricea de confuzie pentru utilizarea centroizilor: 1000 culori, z-score}}{74}\protected@file@percent }
\newlabel{fig:centroid_1000_z_score}{{A.13}{74}}
\@writefile{lof}{\contentsline {figure}{\numberline {A.14}{\ignorespaces Acurate\IeC {\textcommabelow t}ile ob\IeC {\textcommabelow t}inute pentru fiecare canal}}{74}\protected@file@percent }
\newlabel{fig:one_vs_all_each}{{A.14}{74}}
\@writefile{lof}{\contentsline {figure}{\numberline {A.15}{\ignorespaces Rezultatele ob\IeC {\textcommabelow t}inute utiliz\IeC {\^a}nd toate canalele \IeC {\textcommabelow s}i f\IeC {\u a}r\IeC {\u a} canalul 12.}}{75}\protected@file@percent }
\newlabel{fig:one_vs_all_without}{{A.15}{75}}
\@writefile{lof}{\contentsline {figure}{\numberline {A.16}{\ignorespaces Matricea de confuzie pentru utilizarea tuturor canalelor: Z-score}}{75}\protected@file@percent }
\newlabel{fig:one_vs_all_confusion_all}{{A.16}{75}}
\@writefile{toc}{\contentsline {chapter}{Anexa{} \numberline {B}Secven\IeC {\textcommabelow t}e relevante de cod}{76}\protected@file@percent }
\@writefile{lof}{\addvspace {10\p@ }}
\@writefile{lot}{\addvspace {10\p@ }}
\@writefile{toc}{\contentsline {chapter}{Anexa{} \numberline {C}Lucr\IeC {\u a}ri publicate}{87}\protected@file@percent }
\@writefile{lof}{\addvspace {10\p@ }}
\@writefile{lot}{\addvspace {10\p@ }}
\@setckpt{apendix}{
\setcounter{page}{95}
\setcounter{equation}{0}
\setcounter{enumi}{3}
\setcounter{enumii}{0}
\setcounter{enumiii}{0}
\setcounter{enumiv}{18}
\setcounter{footnote}{0}
\setcounter{mpfootnote}{0}
\setcounter{part}{0}
\setcounter{chapter}{3}
\setcounter{section}{0}
\setcounter{subsection}{0}
\setcounter{subsubsection}{0}
\setcounter{paragraph}{0}
\setcounter{subparagraph}{0}
\setcounter{figure}{0}
\setcounter{table}{0}
\setcounter{parentequation}{0}
\setcounter{float@type}{16}
\setcounter{algorithm}{5}
\setcounter{ALG@line}{8}
\setcounter{ALG@rem}{0}
\setcounter{ALG@nested}{0}
\setcounter{ALG@Lnr}{2}
\setcounter{ALG@blocknr}{10}
\setcounter{ALG@storecount}{0}
\setcounter{ALG@tmpcounter}{0}
\setcounter{lstnumber}{68}
\setcounter{AM@survey}{0}
\setcounter{lstlisting}{0}
}
