\relax 
\@writefile{toc}{\contentsline {chapter}{Lista tabelelor}{iv}\protected@file@percent }
\@writefile{toc}{\contentsline {chapter}{Lista figurilor}{v}\protected@file@percent }
\@writefile{toc}{\contentsline {chapter}{Capitolul{} \numberline {1}Introducere}{1}\protected@file@percent }
\@writefile{lof}{\addvspace {10\p@ }}
\@writefile{lot}{\addvspace {10\p@ }}
\citation{electrozi}
\@writefile{toc}{\contentsline {section}{\numberline {1.1}Contextul proiectului}{2}\protected@file@percent }
\@writefile{toc}{\contentsline {section}{\numberline {1.2}Tema lucr\IeC {\u a}rii}{2}\protected@file@percent }
\@writefile{toc}{\contentsline {section}{\numberline {1.3}Structura lucr\IeC {\u a}rii}{3}\protected@file@percent }
\@writefile{toc}{\contentsline {chapter}{Capitolul{} \numberline {2}Obiectivele Proiectului}{4}\protected@file@percent }
\@writefile{lof}{\addvspace {10\p@ }}
\@writefile{lot}{\addvspace {10\p@ }}
\newlabel{cap:obiective}{{2}{4}}
\@writefile{toc}{\contentsline {section}{\numberline {2.1}Motiva\IeC {\textcommabelow t}ia}{4}\protected@file@percent }
\@writefile{toc}{\contentsline {section}{\numberline {2.2}Obiective}{5}\protected@file@percent }
\@writefile{toc}{\contentsline {section}{\numberline {2.3}Dificult\IeC {\u a}\IeC {\textcommabelow t}i}{5}\protected@file@percent }
\@writefile{toc}{\contentsline {section}{\numberline {2.4}Cerin\IeC {\textcommabelow t}e func\IeC {\textcommabelow t}ionale}{5}\protected@file@percent }
\@writefile{toc}{\contentsline {section}{\numberline {2.5}Cerin\IeC {\textcommabelow t}e nonfunc\IeC {\textcommabelow t}ionale}{6}\protected@file@percent }
\@writefile{toc}{\contentsline {section}{\numberline {2.6}Caz de utilizare}{6}\protected@file@percent }
\@writefile{lof}{\contentsline {figure}{\numberline {2.1}{\ignorespaces Cazul de utilizare pentru vizualizarea popula\IeC {\textcommabelow t}iei de neuroni}}{7}\protected@file@percent }
\newlabel{fig:use_case}{{2.1}{7}}
\citation{electrozi}
\citation{MRI}
\citation{EEG}
\@writefile{toc}{\contentsline {chapter}{Capitolul{} \numberline {3}Studiu Bibliografic}{8}\protected@file@percent }
\@writefile{lof}{\addvspace {10\p@ }}
\@writefile{lot}{\addvspace {10\p@ }}
\@writefile{toc}{\contentsline {section}{\numberline {3.1}Tehnici de extragere a activit\IeC {\u a}\IeC {\textcommabelow t}ii neuronilor}{8}\protected@file@percent }
\citation{jurjut1}
\@writefile{lof}{\contentsline {figure}{\numberline {3.1}{\ignorespaces Interac\IeC {\textcommabelow t}ionarea unui grup de tetrode cu o popula\IeC {\textcommabelow t}ie de neuroni}}{9}\protected@file@percent }
\newlabel{fig:concept_electrozi}{{3.1}{9}}
\@writefile{toc}{\contentsline {section}{\numberline {3.2}Vizualizarea tiparelor de desc\IeC {\u a}rcare}{9}\protected@file@percent }
\@writefile{lof}{\contentsline {figure}{\numberline {3.2}{\ignorespaces Pa\IeC {\textcommabelow s}ii conceptuali pentru ob\IeC {\textcommabelow t}inerea secven\IeC {\textcommabelow t}ei de culori}}{10}\protected@file@percent }
\newlabel{fig:jurjut_pasi}{{3.2}{10}}
\citation{dateMaimuteSVM}
\citation{soriceiPopulatieNeuroni}
\@writefile{toc}{\contentsline {section}{\numberline {3.3}\IeC {\^I}nv\IeC {\u a}\IeC {\textcommabelow t}area automat\IeC {\u a} aplicat\IeC {\u a} pe date extrase din creier}{11}\protected@file@percent }
\citation{jurjut2}
\citation{jurjut1}
\citation{LSTM}
\@writefile{toc}{\contentsline {subsection}{\numberline {3.3.1}Clasificare utiliz\IeC {\^a}nd tipare reie\IeC {\textcommabelow s}ite din metode de vizualizare}{12}\protected@file@percent }
\@writefile{toc}{\contentsline {section}{\numberline {3.4}Clasificarea datelor temporale}{12}\protected@file@percent }
\citation{finantialTimeSeriesCNN}
\citation{CNN}
\@writefile{toc}{\contentsline {chapter}{Capitolul{} \numberline {4}Analiz\u {a} \c {s}i Fundamentare Teoretic\u {a}}{14}\protected@file@percent }
\@writefile{lof}{\addvspace {10\p@ }}
\@writefile{lot}{\addvspace {10\p@ }}
\newlabel{ch:analysis}{{4}{14}}
\@writefile{toc}{\contentsline {section}{\numberline {4.1}Descrierea experimentului.}{14}\protected@file@percent }
\newlabel{sec:desc_exp}{{4.1}{14}}
\@writefile{lof}{\contentsline {figure}{\numberline {4.1}{\ignorespaces Gratiile \IeC {\^\i }mpreun\IeC {\u a} cu orient\IeC {\u a}rile de deplasare}}{14}\protected@file@percent }
\newlabel{fig:stimul_orientari}{{4.1}{14}}
\@writefile{lof}{\contentsline {figure}{\numberline {4.2}{\ignorespaces Evenimentele \IeC {\textcommabelow s}i duratele de timp dintre acestea}}{15}\protected@file@percent }
\newlabel{fig:desc_proba}{{4.2}{15}}
\@writefile{toc}{\contentsline {subsection}{\numberline {4.1.1}Provoc\IeC {\u a}rile introduse de setul de date}{15}\protected@file@percent }
\@writefile{toc}{\contentsline {subsection}{\numberline {4.1.2}Amplitudinea desc\IeC {\u a}rc\IeC {\u a}rii}{16}\protected@file@percent }
\@writefile{lof}{\contentsline {figure}{\numberline {4.3}{\ignorespaces Forma de und\IeC {\u a} \IeC {\textcommabelow s}i amplitudinea unei desc\IeC {\u a}rc\IeC {\u a}ri}}{16}\protected@file@percent }
\newlabel{fig:amplitudine_descarcare}{{4.3}{16}}
\@writefile{toc}{\contentsline {section}{\numberline {4.2}Responsabilit\IeC {\u a}\IeC {\textcommabelow t}ile sistemului}{16}\protected@file@percent }
\@writefile{lof}{\contentsline {figure}{\numberline {4.4}{\ignorespaces Responsabilit\IeC {\u a}\IeC {\textcommabelow t}ile sistemului}}{17}\protected@file@percent }
\newlabel{fig:responsabilitati}{{4.4}{17}}
\@writefile{toc}{\contentsline {subsection}{\numberline {4.2.1}Procesarea datelor}{17}\protected@file@percent }
\newlabel{eq:medie}{{4.1}{17}}
\newlabel{eq:std}{{4.2}{17}}
\citation{kernel_decay}
\newlabel{eq:z_score}{{4.3}{18}}
\newlabel{eq:z_score_scale}{{4.4}{18}}
\@writefile{toc}{\contentsline {subsection}{\numberline {4.2.2}Convolu\IeC {\textcommabelow t}ia \IeC {\^\i }n timp}{18}\protected@file@percent }
\citation{jurjut1}
\newlabel{eq:kernel_decay}{{4.5}{19}}
\@writefile{lof}{\contentsline {figure}{\numberline {4.5}{\ignorespaces Aplicarea convolu\IeC {\textcommabelow t}iei cu $\tau = 20$}}{19}\protected@file@percent }
\newlabel{fig:kernel_decay}{{4.5}{19}}
\@writefile{toc}{\contentsline {section}{\numberline {4.3}Vizualizare}{19}\protected@file@percent }
\@writefile{toc}{\contentsline {subsection}{\numberline {4.3.1}Hart\IeC {\u a} auto-organizatoare}{19}\protected@file@percent }
\newlabel{sec:SOM}{{4.3.1}{19}}
\citation{som_master_li}
\@writefile{toc}{\contentsline {subsubsection}{Func\IeC {\textcommabelow t}ionare}{20}\protected@file@percent }
\newlabel{eq:best_bmu}{{4.6}{20}}
\@writefile{lof}{\contentsline {figure}{\numberline {4.6}{\ignorespaces Vecin\IeC {\u a}tatea unui centroid}}{21}\protected@file@percent }
\newlabel{fig:SOM_neigh}{{4.6}{21}}
\citation{psth}
\newlabel{alg:invatare_som}{{4.3.1}{22}}
\@writefile{loa}{\contentsline {algorithm}{\numberline {1}{\ignorespaces Algoritm \IeC {\^\i }nv\IeC {\u a}\IeC {\textcommabelow t}are SOM}}{22}\protected@file@percent }
\@writefile{loa}{\contentsline {algorithm}{\numberline {2}{\ignorespaces Algoritm proiec\IeC {\textcommabelow t}ie SOM}}{22}\protected@file@percent }
\@writefile{toc}{\contentsline {subsection}{\numberline {4.3.2}PSTH}{22}\protected@file@percent }
\@writefile{toc}{\contentsline {subsubsection}{Func\IeC {\textcommabelow t}ionare}{23}\protected@file@percent }
\newlabel{alg:PSTH}{{4.3.2}{23}}
\@writefile{loa}{\contentsline {algorithm}{\numberline {3}{\ignorespaces Algoritmul PSTH}}{23}\protected@file@percent }
\@writefile{toc}{\contentsline {subsubsection}{Scara de culori}{23}\protected@file@percent }
\citation{DT}
\citation{info_gain}
\@writefile{toc}{\contentsline {section}{\numberline {4.4}Clasificare}{24}\protected@file@percent }
\@writefile{toc}{\contentsline {subsection}{\numberline {4.4.1}C\IeC {\^a}\IeC {\textcommabelow s}tigul de informa\IeC {\textcommabelow t}ie}{24}\protected@file@percent }
\newlabel{sec:info_gain}{{4.4.1}{24}}
\newlabel{eq:entropy}{{4.10}{24}}
\newlabel{eq:infogain}{{4.11}{24}}
\newlabel{eq:ea}{{4.12}{24}}
\citation{DT}
\citation{SVM}
\@writefile{toc}{\contentsline {subsection}{\numberline {4.4.2}Arbori de decizie}{25}\protected@file@percent }
\newlabel{sec:concept_DT}{{4.4.2}{25}}
\@writefile{toc}{\contentsline {subsection}{\numberline {4.4.3}Support Vector Machines}{25}\protected@file@percent }
\newlabel{sec:concept_SVM}{{4.4.3}{25}}
\citation{CNN}
\citation{CNN_1d}
\@writefile{toc}{\contentsline {subsection}{\numberline {4.4.4}Re\IeC {\textcommabelow t}ele neuronale convolu\IeC {\textcommabelow t}ionale}{26}\protected@file@percent }
\newlabel{sec:concept_CNN}{{4.4.4}{26}}
\@writefile{lof}{\contentsline {figure}{\numberline {4.7}{\ignorespaces Direc\IeC {\textcommabelow t}ii de deplasare a ferestrei de convolu\IeC {\textcommabelow t}ie: a) doi dimensional; b) uni dimensional}}{26}\protected@file@percent }
\newlabel{fig:conv_1D_2D}{{4.7}{26}}
\@writefile{toc}{\contentsline {subsection}{\numberline {4.4.5}Tr\IeC {\u a}s\IeC {\u a}turi considerate pentru clasificare}{27}\protected@file@percent }
\newlabel{sec:features}{{4.4.5}{27}}
\@writefile{toc}{\contentsline {subsubsection}{Histograma culorilor}{27}\protected@file@percent }
\newlabel{sec:features_histogram}{{4.4.5}{27}}
\newlabel{alg:PSTH}{{4.4.5}{27}}
\@writefile{loa}{\contentsline {algorithm}{\numberline {4}{\ignorespaces Histograma culori}}{27}\protected@file@percent }
\@writefile{toc}{\contentsline {subsubsection}{\IeC {\^I}ntreaga prob\IeC {\u a}}{27}\protected@file@percent }
\newlabel{sec:features_full_trial}{{4.4.5}{27}}
\@writefile{toc}{\contentsline {section}{\numberline {4.5}Evaluarea clasificatorilor}{28}\protected@file@percent }
\@writefile{toc}{\contentsline {subsection}{\numberline {4.5.1}Matricea de confuzie}{28}\protected@file@percent }
\@writefile{lof}{\contentsline {figure}{\numberline {4.8}{\ignorespaces Structura matricei de confuzie pentru dou\IeC {\u a} clase: Pozitiv \IeC {\textcommabelow s}i Negativ}}{28}\protected@file@percent }
\newlabel{fig:conf_matrix}{{4.8}{28}}
\@writefile{toc}{\contentsline {subsection}{\numberline {4.5.2}Acurate\IeC {\textcommabelow t}ea}{29}\protected@file@percent }
\@writefile{loa}{\contentsline {algorithm}{\numberline {5}{\ignorespaces Clasificare}}{29}\protected@file@percent }
\@writefile{toc}{\contentsline {chapter}{Capitolul{} \numberline {5}Proiectare de Detaliu \c {s}i Implementare}{30}\protected@file@percent }
\@writefile{lof}{\addvspace {10\p@ }}
\@writefile{lot}{\addvspace {10\p@ }}
\newlabel{cap:implementare}{{5}{30}}
\@writefile{toc}{\contentsline {section}{\numberline {5.1}Tehnologii utilizate}{30}\protected@file@percent }
\newlabel{sec:tehnilogii}{{5.1}{30}}
\@writefile{toc}{\contentsline {subsubsection}{Python}{30}\protected@file@percent }
\@writefile{toc}{\contentsline {subsubsection}{Biblioteci utilizate}{31}\protected@file@percent }
\@writefile{toc}{\contentsline {section}{\numberline {5.2}Arhitectura sistemului}{31}\protected@file@percent }
\@writefile{toc}{\contentsline {section}{\numberline {5.3}Extragerea datelor}{32}\protected@file@percent }
\@writefile{toc}{\contentsline {subsection}{\numberline {5.3.1}Fi\IeC {\textcommabelow s}ierele de date}{32}\protected@file@percent }
\newlabel{sec:file_date}{{5.3.1}{32}}
\@writefile{toc}{\contentsline {subsubsection}{MetadataReader}{33}\protected@file@percent }
\@writefile{toc}{\contentsline {subsubsection}{TrialMetadataReader}{34}\protected@file@percent }
\@writefile{toc}{\contentsline {subsubsection}{SpikeAndTimestampReader}{34}\protected@file@percent }
\@writefile{toc}{\contentsline {subsubsection}{TrialExtractor}{35}\protected@file@percent }
\@writefile{toc}{\contentsline {section}{\numberline {5.4}Utilitare}{36}\protected@file@percent }
\@writefile{toc}{\contentsline {subsubsection}{KernelDecay}{36}\protected@file@percent }
\newlabel{subsec:kernel_decay}{{5.4}{36}}
\@writefile{toc}{\contentsline {subsubsection}{InfoGain}{37}\protected@file@percent }
\@writefile{toc}{\contentsline {section}{\numberline {5.5}Modulul de vizualizare}{37}\protected@file@percent }
\@writefile{toc}{\contentsline {subsubsection}{Colormap}{38}\protected@file@percent }
\@writefile{toc}{\contentsline {subsubsection}{PlotsCV}{38}\protected@file@percent }
\@writefile{toc}{\contentsline {subsection}{\numberline {5.5.1}Vizualizarea colectiv\IeC {\u a} a canalelor}{39}\protected@file@percent }
\newlabel{imple:viz_colectiva}{{5.5.1}{39}}
\@writefile{toc}{\contentsline {subsubsection}{SomDataBuilder}{39}\protected@file@percent }
\citation{som_imple}
\@writefile{toc}{\contentsline {subsubsection}{SomProjectionsUtils}{40}\protected@file@percent }
\@writefile{toc}{\contentsline {subsubsection}{SOM}{41}\protected@file@percent }
\@writefile{toc}{\contentsline {subsubsection}{SomPlots}{41}\protected@file@percent }
\@writefile{toc}{\contentsline {subsubsection}{SomPlotsGenerator}{41}\protected@file@percent }
\@writefile{toc}{\contentsline {subsubsection}{SomGainVisualOnlyBestColors}{42}\protected@file@percent }
\@writefile{toc}{\contentsline {subsection}{\numberline {5.5.2}Vizualizarea individual\IeC {\u a} a canalelor}{42}\protected@file@percent }
\@writefile{toc}{\contentsline {subsubsection}{PsthDataBuilder}{42}\protected@file@percent }
\@writefile{toc}{\contentsline {subsubsection}{PsthHeatmapPlot}{43}\protected@file@percent }
\@writefile{toc}{\contentsline {section}{\numberline {5.6}Modulul de clasificare}{43}\protected@file@percent }
\@writefile{toc}{\contentsline {subsubsection}{ClassificationUtils}{43}\protected@file@percent }
\@writefile{toc}{\contentsline {subsection}{\numberline {5.6.1}Clasificatori}{44}\protected@file@percent }
\@writefile{toc}{\contentsline {subsubsection}{DecisionTree}{44}\protected@file@percent }
\@writefile{toc}{\contentsline {subsubsection}{SupportVectorMachines}{44}\protected@file@percent }
\@writefile{toc}{\contentsline {subsubsection}{CNN1d}{44}\protected@file@percent }
\citation{jurjut2}
\@writefile{toc}{\contentsline {subsection}{\numberline {5.6.2}Clasificarea datelor utiliz\IeC {\^a}nd tipare rezultate \IeC {\^\i }n urma clusteriz\IeC {\u a}rii}{45}\protected@file@percent }
\newlabel{imple:clasi_som}{{5.6.2}{45}}
\@writefile{toc}{\contentsline {subsubsection}{SomDatasetBuilder}{46}\protected@file@percent }
\@writefile{toc}{\contentsline {subsubsection}{SomClassification}{46}\protected@file@percent }
\@writefile{toc}{\contentsline {subsubsection}{SomTool}{46}\protected@file@percent }
\@writefile{toc}{\contentsline {subsection}{\numberline {5.6.3}Clasificarea datelor utiliz\IeC {\^a}nd convolu\IeC {\textcommabelow t}ia \IeC {\^\i }n timp}{47}\protected@file@percent }
\@writefile{toc}{\contentsline {subsubsection}{RawUtils}{47}\protected@file@percent }
\@writefile{toc}{\contentsline {subsubsection}{RawDatasetBuilder}{47}\protected@file@percent }
\@writefile{toc}{\contentsline {subsubsection}{RawClassification}{47}\protected@file@percent }
\@writefile{toc}{\contentsline {subsubsection}{RawTool}{48}\protected@file@percent }
\@writefile{lof}{\contentsline {figure}{\numberline {5.1}{\ignorespaces Arhitectura componentelor organizate pe module}}{49}\protected@file@percent }
\newlabel{fig:arhitectura_detaliata}{{5.1}{49}}
\@writefile{toc}{\contentsline {chapter}{Capitolul{} \numberline {6}Testare \c {s}i Validare}{50}\protected@file@percent }
\@writefile{lof}{\addvspace {10\p@ }}
\@writefile{lot}{\addvspace {10\p@ }}
\newlabel{cap:results}{{6}{50}}
\@writefile{toc}{\contentsline {section}{\numberline {6.1}Evaluarea ipotezelor de codificare, prin metode de vizualizare}{50}\protected@file@percent }
\@writefile{toc}{\contentsline {subsection}{\numberline {6.1.1}Vizualizarea activit\IeC {\u a}\IeC {\textcommabelow t}ii popula\IeC {\textcommabelow t}iei de neuroni}{50}\protected@file@percent }
\@writefile{lof}{\contentsline {figure}{\numberline {6.1}{\ignorespaces Activitatea popula\IeC {\textcommabelow t}iei de neuroni: toate contrastele}}{51}\protected@file@percent }
\newlabel{fig:som_10_all_contrasts}{{6.1}{51}}
\@writefile{lof}{\contentsline {figure}{\numberline {6.2}{\ignorespaces Compararea consider\IeC {\u a}rii amplitudinii \IeC {\textcommabelow s}i a mediei pe canale}}{52}\protected@file@percent }
\newlabel{fig:som_10_merge_diff}{{6.2}{52}}
\@writefile{lof}{\contentsline {figure}{\numberline {6.3}{\ignorespaces Tiparele ce au cel putin 80\% din valoarea maxim\IeC {\u a} de c\IeC {\^a}\IeC {\textcommabelow s}tig de informa\IeC {\textcommabelow t}ie: 125 de culori}}{53}\protected@file@percent }
\newlabel{fig:som_5_info_gain_0_8}{{6.3}{53}}
\@writefile{toc}{\contentsline {subsection}{\numberline {6.1.2}Vizualizarea activit\IeC {\u a}\IeC {\textcommabelow t}ii individuale pe canale}{53}\protected@file@percent }
\@writefile{toc}{\contentsline {section}{\numberline {6.2}Evaluarea modulului de clasificare}{53}\protected@file@percent }
\@writefile{lof}{\contentsline {figure}{\numberline {6.4}{\ignorespaces Activitatea pe canale a neuronilor: fereastr\IeC {\u a} de 100 de elemente}}{54}\protected@file@percent }
\newlabel{fig:psth_100_1}{{6.4}{54}}
\@writefile{toc}{\contentsline {subsection}{\numberline {6.2.1}Clasificarea utiliz\IeC {\^a}nd tr\IeC {\u a}s\IeC {\u a}turi reie\IeC {\textcommabelow s}ite din clusterizare}{54}\protected@file@percent }
\@writefile{lot}{\contentsline {table}{\numberline {6.1}{\ignorespaces Rezultate pentru histograma de culori \IeC {\textcommabelow s}i arbori de decizie}}{55}\protected@file@percent }
\newlabel{table:dt_h}{{6.1}{55}}
\@writefile{lot}{\contentsline {table}{\numberline {6.2}{\ignorespaces Rezultate utiliz\IeC {\^a}nd histograme de culori \IeC {\^\i }mpreun\IeC {\u a} cu arbori de decizie \IeC {\textcommabelow s}i c\IeC {\^a}\IeC {\textcommabelow s}tigul de informa\IeC {\textcommabelow t}ie}}{56}\protected@file@percent }
\newlabel{table:info_gain}{{6.2}{56}}
\@writefile{lot}{\contentsline {table}{\numberline {6.3}{\ignorespaces Rezultatele utiliz\IeC {\^a}nd Z-score, reprezentarea prin centroizi \IeC {\textcommabelow s}i re\IeC {\textcommabelow t}ele convolu\IeC {\textcommabelow t}ionale.}}{56}\protected@file@percent }
\newlabel{table:model_vectors_z_score}{{6.3}{56}}
\@writefile{toc}{\contentsline {subsection}{\numberline {6.2.2}Clasificarea utiliz\IeC {\^a}nd tiparele rezultate \IeC {\^\i }n urma convolu\IeC {\textcommabelow t}iei}{56}\protected@file@percent }
\citation{dateMaimuteSVM}
\@writefile{lof}{\contentsline {figure}{\numberline {6.5}{\ignorespaces Acurate\IeC {\textcommabelow t}ile ob\IeC {\textcommabelow t}inute pentru fiecare canal utiliz\IeC {\^a}nd Z-score.}}{57}\protected@file@percent }
\newlabel{fig:one_vs_all_z_score_each}{{6.5}{57}}
\@writefile{lof}{\contentsline {figure}{\numberline {6.6}{\ignorespaces Rezultatele ob\IeC {\textcommabelow t}inute utiliz\IeC {\^a}nd toate canalele \IeC {\textcommabelow s}i f\IeC {\u a}r\IeC {\u a} canalul 12, cu Z-score.}}{58}\protected@file@percent }
\newlabel{fig:one_vs_all_z_score_without}{{6.6}{58}}
\@writefile{lot}{\contentsline {table}{\numberline {6.4}{\ignorespaces Rezultatele pentru diferite propor\IeC {\textcommabelow t}ii ale setului de date de antrenament}}{58}\protected@file@percent }
\newlabel{table:sizes}{{6.4}{58}}
\@writefile{toc}{\contentsline {chapter}{Capitolul{} \numberline {7}Manual de Instalare \c {s}i Utilizare}{59}\protected@file@percent }
\@writefile{lof}{\addvspace {10\p@ }}
\@writefile{lot}{\addvspace {10\p@ }}
\@writefile{toc}{\contentsline {section}{\numberline {7.1}Resurse Necesare}{59}\protected@file@percent }
\@writefile{toc}{\contentsline {section}{\numberline {7.2}Instalare}{59}\protected@file@percent }
\@writefile{toc}{\contentsline {section}{\numberline {7.3}Func\IeC {\textcommabelow t}ionalit\IeC {\u a}\IeC {\textcommabelow t}i}{60}\protected@file@percent }
\@writefile{lof}{\contentsline {figure}{\numberline {7.1}{\ignorespaces Descrierea parametrilor \IeC {\textcommabelow s}i func\IeC {\textcommabelow t}ionalit\IeC {\u a}\IeC {\textcommabelow t}ii unei proceduri.}}{60}\protected@file@percent }
\newlabel{fig:descriere_functie}{{7.1}{60}}
\citation{jurjut2}
\citation{jurjut1}
\@writefile{toc}{\contentsline {chapter}{Capitolul{} \numberline {8}Concluzii}{61}\protected@file@percent }
\@writefile{lof}{\addvspace {10\p@ }}
\@writefile{lot}{\addvspace {10\p@ }}
\@writefile{toc}{\contentsline {section}{\numberline {8.1}Solu\IeC {\textcommabelow t}ia propus\IeC {\u a} \IeC {\textcommabelow s}i contribu\IeC {\textcommabelow t}iile personale}{61}\protected@file@percent }
\citation{jurjut2}
\@writefile{toc}{\contentsline {section}{\numberline {8.2}Dezvolt\IeC {\u a}ri ulterioare}{62}\protected@file@percent }
\bibstyle{IEEEtran}
\bibdata{thesis}
\bibcite{electrozi}{1}
\bibcite{MRI}{2}
\bibcite{EEG}{3}
\bibcite{jurjut1}{4}
\bibcite{dateMaimuteSVM}{5}
\bibcite{soriceiPopulatieNeuroni}{6}
\bibcite{jurjut2}{7}
\bibcite{LSTM}{8}
\bibcite{finantialTimeSeriesCNN}{9}
\bibcite{CNN}{10}
\bibcite{kernel_decay}{11}
\@writefile{toc}{\contentsline {chapter}{Bibliografie}{64}\protected@file@percent }
\bibcite{som_master_li}{12}
\bibcite{psth}{13}
\bibcite{DT}{14}
\bibcite{info_gain}{15}
\bibcite{SVM}{16}
\bibcite{CNN_1d}{17}
\bibcite{som_imple}{18}
\@input{apendix.aux}
